{
    "neoforge:conditions": [
        {
            "type": "neoforge:not",
            "value": {
                "type": "jrftl:hard_mode"
            }
        }
    ],
    "type": "minecraft:smoking",
    "ingredient": "minecraft:rotten_flesh",
    "result": {
        "id": "minecraft:leather"
    },
    "experience": 0.2,
    "cookingtime": 100
}
